{
  "project_info": {
    "project_number": "277386195555",
    "firebase_url": "https://uberabogado.firebaseio.com",
    "project_id": "uberabogado",
    "storage_bucket": "uberabogado.appspot.com"
  },
  "client": [
    {
      "client_info": {
        "mobilesdk_app_id": "1:277386195555:android:76e8aeaf0aba68a5fcfe56",
        "android_client_info": {
          "package_name": "balam.app.abogadosuber"
        }
      },
      "oauth_client": [
        {
          "client_id": "277386195555-5si2122uo1n91jdnb96ogicfuqrljic5.apps.googleusercontent.com",
          "client_type": 3
        }
      ],
      "api_key": [
        {
          "current_key": "AIzaSyB_JlS0Ml6N2MN7P6RC3wDM_72ODPglNo8"
        }
      ],
      "services": {
        "appinvite_service": {
          "other_platform_oauth_client": [
            {
              "client_id": "277386195555-5si2122uo1n91jdnb96ogicfuqrljic5.apps.googleusercontent.com",
              "client_type": 3
            }
          ]
        }
      }
    },
    {
      "client_info": {
        "mobilesdk_app_id": "1:277386195555:android:c220e7072c302928fcfe56",
        "android_client_info": {
          "package_name": "balam.app.uberabogados"
        }
      },
      "oauth_client": [
        {
          "client_id": "277386195555-jgbcuig64ib383tj1leaoc4drjq5l32v.apps.googleusercontent.com",
          "client_type": 1,
          "android_info": {
            "package_name": "balam.app.uberabogados",
            "certificate_hash": "7bca2801e3d829cc8056a73f7595b884eb76672e"
          }
        },
        {
          "client_id": "277386195555-5si2122uo1n91jdnb96ogicfuqrljic5.apps.googleusercontent.com",
          "client_type": 3
        }
      ],
      "api_key": [
        {
          "current_key": "AIzaSyB_JlS0Ml6N2MN7P6RC3wDM_72ODPglNo8"
        }
      ],
      "services": {
        "appinvite_service": {
          "other_platform_oauth_client": [
            {
              "client_id": "277386195555-5si2122uo1n91jdnb96ogicfuqrljic5.apps.googleusercontent.com",
              "client_type": 3
            }
          ]
        }
      }
    }
  ],
  "configuration_version": "1"
}